2016/06/01 * guld pre-founding contributions
    matthewmueller:Assets                              100 GULD
    matthewmueller:Income:guld                        -100 GULD
    guld:Liabilities                         -100 GULD
    guld:Equity:matthewmueller                          100 GULD
